{
  "_embedded": {
    "hospitals": [
      {
        "id": 11,
        "name": "Canterbury Hospital",
        "waitingList": [
          {
            "patientCount": 9,
            "levelOfPain": 0,
            "averageProcessTime": 25
          },
          {
            "patientCount": 7,
            "levelOfPain": 1,
            "averageProcessTime": 60
          },
          {
            "patientCount": 2,
            "levelOfPain": 2,
            "averageProcessTime": 49
          },
          {
            "patientCount": 2,
            "levelOfPain": 3,
            "averageProcessTime": 16
          },
          {
            "patientCount": 7,
            "levelOfPain": 4,
            "averageProcessTime": 80
          }
        ],
        "location": {
          "lat": -33.9196,
          "lng": 151.0984
        }
      },
      {
        "id": 12,
        "name": "Sutherland Hospital & Community Health Service",
        "waitingList": [
          {
            "patientCount": 9,
            "levelOfPain": 0,
            "averageProcessTime": 15
          },
          {
            "patientCount": 11,
            "levelOfPain": 1,
            "averageProcessTime": 32
          },
          {
            "patientCount": 15,
            "levelOfPain": 2,
            "averageProcessTime": 53
          },
          {
            "patientCount": 9,
            "levelOfPain": 3,
            "averageProcessTime": 11
          },
          {
            "patientCount": 11,
            "levelOfPain": 4,
            "averageProcessTime": 49
          }
        ],
        "location": {
          "lat": -34.036834,
          "lng": 151.116591
        }
      },
      {
        "id": 13,
        "name": "Hornsby Ku-ring-gai Hospital",
        "waitingList": [
          {
            "patientCount": 18,
            "levelOfPain": 0,
            "averageProcessTime": 32
          },
          {
            "patientCount": 1,
            "levelOfPain": 1,
            "averageProcessTime": 12
          },
          {
            "patientCount": 11,
            "levelOfPain": 2,
            "averageProcessTime": 43
          },
          {
            "patientCount": 18,
            "levelOfPain": 3,
            "averageProcessTime": 37
          },
          {
            "patientCount": 4,
            "levelOfPain": 4,
            "averageProcessTime": 91
          }
        ],
        "location": {
          "lat": -33.701761,
          "lng": 151.113038
        }
      },
      {
        "id": 14,
        "name": "Bankstown Lidcombe Hospital",
        "waitingList": [
          {
            "patientCount": 9,
            "levelOfPain": 0,
            "averageProcessTime": 58
          },
          {
            "patientCount": 4,
            "levelOfPain": 1,
            "averageProcessTime": 82
          },
          {
            "patientCount": 2,
            "levelOfPain": 2,
            "averageProcessTime": 36
          },
          {
            "patientCount": 9,
            "levelOfPain": 3,
            "averageProcessTime": 41
          },
          {
            "patientCount": 4,
            "levelOfPain": 4,
            "averageProcessTime": 39
          }
        ],
        "location": {
          "lat": -33.931975,
          "lng": 151.02141
        }
      },
      {
        "id": 15,
        "name": "Fairfield Hospital",
        "waitingList": [
          {
            "patientCount": 9,
            "levelOfPain": 0,
            "averageProcessTime": 55
          },
          {
            "patientCount": 1,
            "levelOfPain": 1,
            "averageProcessTime": 29
          },
          {
            "patientCount": 1,
            "levelOfPain": 2,
            "averageProcessTime": 49
          },
          {
            "patientCount": 9,
            "levelOfPain": 3,
            "averageProcessTime": 36
          },
          {
            "patientCount": 4,
            "levelOfPain": 4,
            "averageProcessTime": 90
          }
        ],
        "location": {
          "lat": -33.857382,
          "lng": 150.9043
        }
      },
      {
        "id": 16,
        "name": "Liverpool Hospital",
        "waitingList": [
          {
            "patientCount": 1,
            "levelOfPain": 0,
            "averageProcessTime": 46
          },
          {
            "patientCount": 0,
            "levelOfPain": 1,
            "averageProcessTime": 16
          },
          {
            "patientCount": 5,
            "levelOfPain": 2,
            "averageProcessTime": 52
          },
          {
            "patientCount": 6,
            "levelOfPain": 3,
            "averageProcessTime": 101
          },
          {
            "patientCount": 7,
            "levelOfPain": 4,
            "averageProcessTime": 25
          }
        ],
        "location": {
          "lat": -33.920356,
          "lng": 150.929298
        }
      },
      {
        "id": 17,
        "name": "Blacktown Hospital",
        "waitingList": [
          {
            "patientCount": 7,
            "levelOfPain": 0,
            "averageProcessTime": 19
          },
          {
            "patientCount": 3,
            "levelOfPain": 1,
            "averageProcessTime": 40
          },
          {
            "patientCount": 2,
            "levelOfPain": 2,
            "averageProcessTime": 36
          },
          {
            "patientCount": 7,
            "levelOfPain": 3,
            "averageProcessTime": 60
          },
          {
            "patientCount": 3,
            "levelOfPain": 4,
            "averageProcessTime": 49
          }
        ],
        "location": {
          "lat": -33.7769,
          "lng": 150.917301
        }
      },
      {
        "id": 18,
        "name": "Mount Druitt Hospital",
        "waitingList": [
          {
            "patientCount": 1,
            "levelOfPain": 0,
            "averageProcessTime": 22
          },
          {
            "patientCount": 2,
            "levelOfPain": 1,
            "averageProcessTime": 34
          },
          {
            "patientCount": 3,
            "levelOfPain": 2,
            "averageProcessTime": 9
          },
          {
            "patientCount": 4,
            "levelOfPain": 3,
            "averageProcessTime": 87
          },
          {
            "patientCount": 2,
            "levelOfPain": 4,
            "averageProcessTime": 102
          }
        ],
        "location": {
          "lat": -33.764752,
          "lng": 150.827445
        }
      },
      {
        "id": 19,
        "name": "Campbelltown Hospital",
        "waitingList": [
          {
            "patientCount": 0,
            "levelOfPain": 0,
            "averageProcessTime": 41
          },
          {
            "patientCount": 2,
            "levelOfPain": 1,
            "averageProcessTime": 20
          },
          {
            "patientCount": 3,
            "levelOfPain": 2,
            "averageProcessTime": 10
          },
          {
            "patientCount": 9,
            "levelOfPain": 3,
            "averageProcessTime": 510
          },
          {
            "patientCount": 2,
            "levelOfPain": 4,
            "averageProcessTime": 102
          }
        ],
        "location": {
          "lat": -34.079849,
          "lng": 150.803375
        }
      },
      {
        "id": 20,
        "name": "Gosford Hospital",
        "waitingList": [
          {
            "patientCount": 4,
            "levelOfPain": 0,
            "averageProcessTime": 76
          },
          {
            "patientCount": 2,
            "levelOfPain": 1,
            "averageProcessTime": 36
          },
          {
            "patientCount": 1,
            "levelOfPain": 2,
            "averageProcessTime": 19
          },
          {
            "patientCount": 4,
            "levelOfPain": 3,
            "averageProcessTime": 82
          },
          {
            "patientCount": 2,
            "levelOfPain": 4,
            "averageProcessTime": 410
          }
        ],
        "location": {
          "lat": -33.419599,
          "lng": 151.340264
        }
      }
    ]
  },
  "_links": {
    "self": {
      "href": "http://localhost:5000/api/mocks/hospitals?page=0"
    },
    "next": {
      "href": "http://localhost:5000/api/mocks/hospitals?page=2"
    },
    "prev": {
      "href": "http://localhost:5000/api/mocks/hospitals?page=0"
    }
  },
  "page": {
    "size": 10,
    "totalElements": 23,
    "totalPages": 2,
    "number": 1
  }
}